{
  "contentType": "application/vnd.microsoft.card.adaptive",
  "content": {
    "$schema": "http://adaptivecards.io/schemas/adaptive-card.json",
    "type": "AdaptiveCard",
    "version": "1.0",
    "body": [
      {
        "type": "TextBlock",
        "text": "選擇書本? *(isMultiSelect:false, style:expanded)*"
      },
      {
        "type": "Input.ChoiceSet",
        "id": "bookChoices",
        "style": "expanded",
        "isMultiSelect": false,
        "value": "1",
        "choices": [
          {
            "title": "book1",
            "value": "1",
            "isSelected": true
          },
          {
            "title": "book2",
            "value": "2"
          },
          {
            "title": "book3",
            "value": "3"
          }
        ]
      }
    ],
    "actions": [
      {
        "type": "Action.Submit",
        "title": "訂購",
        "data": {
          "type":"bookOrder",
          "CUSTOM_ID":"",
          "ORDER_NUM":"",
          "ORDER_TIME":"",
          "MEMO":""

        }
      }
    ]
  }
}